{
 "custom_fields": [], 
 "custom_perms": [], 
 "doctype": "Sales Order Item", 
 "property_setters": [
  {
   "_assign": null, 
   "_comments": null, 
   "_liked_by": null, 
   "_user_tags": null, 
   "creation": "2018-10-25 03:00:45.610138", 
   "default_value": null, 
   "doc_type": "Sales Order Item", 
   "docstatus": 0, 
   "doctype_or_field": "DocField", 
   "field_name": "description", 
   "idx": 0, 
   "modified": "2018-10-25 03:00:45.610138", 
   "modified_by": "Administrator", 
   "name": "Sales Order Item-description-label", 
   "owner": "Administrator", 
   "parent": null, 
   "parentfield": null, 
   "parenttype": null, 
   "property": "label", 
   "property_type": "Data", 
   "value": "Remark"
  }, 
  {
   "_assign": null, 
   "_comments": null, 
   "_liked_by": null, 
   "_user_tags": null, 
   "creation": "2018-10-25 03:00:45.603190", 
   "default_value": null, 
   "doc_type": "Sales Order Item", 
   "docstatus": 0, 
   "doctype_or_field": "DocField", 
   "field_name": "description", 
   "idx": 0, 
   "modified": "2018-10-25 03:00:45.603190", 
   "modified_by": "Administrator", 
   "name": "Sales Order Item-description-in_list_view", 
   "owner": "Administrator", 
   "parent": null, 
   "parentfield": null, 
   "parenttype": null, 
   "property": "in_list_view", 
   "property_type": "Check", 
   "value": "1"
  }, 
  {
   "_assign": null, 
   "_comments": null, 
   "_liked_by": null, 
   "_user_tags": null, 
   "creation": "2018-10-25 03:00:45.527084", 
   "default_value": null, 
   "doc_type": "Sales Order Item", 
   "docstatus": 0, 
   "doctype_or_field": "DocType", 
   "field_name": null, 
   "idx": 0, 
   "modified": "2018-10-25 03:00:45.527084", 
   "modified_by": "Administrator", 
   "name": "Sales Order Item-read_only_onload", 
   "owner": "Administrator", 
   "parent": null, 
   "parentfield": null, 
   "parenttype": null, 
   "property": "read_only_onload", 
   "property_type": "Check", 
   "value": null
  }
 ], 
 "sync_on_migrate": 1
}