{
 "align_labels_right": 0, 
 "creation": "2018-10-14 22:00:28.144970", 
 "custom_format": 1, 
 "disabled": 0, 
 "doc_type": "Customer Group", 
 "docstatus": 0, 
 "doctype": "Print Format", 
 "font": "Default", 
 "idx": 0, 
 "line_breaks": 0, 
 "modified": "2018-10-15 01:32:19.925725", 
 "modified_by": "Administrator", 
 "module": "Trademarks", 
 "name": "Status Report", 
 "owner": "Administrator", 
 "print_format_builder": 1, 
 "print_format_type": "Server", 
 "show_section_headings": 0, 
 "standard": "Yes"
}